40
15
                                        
                                        
                                        
                                        
                                        
                                        
                                        
                                        
                                        
                                        
                                        
                                        
   S                             R      
   T        M TTTTT            TTT   E  
TTTTTTTTTTTTTTTTTTTTTTTTTTTTTTTTTTTTTTTT